name,address,threatLevel,bounty,utility,comments
"Bingus","410 Nowhere Dr",3521,15,7,"Needs to chill out, wtf"
"Mike","22 Forlorn Rd",9902,15,9,"Wasozski"
"Boost","2 Zimbo Ln, Boo",220,12,1,"mobile"
"Rob","63 Moose Blvd",1002,11,10,"OP"
"Czar Nicholas","2304 Jimbo Place",1203,130,4,"Dead AF, lmao"
"Bill","40 Peat Rd",9943,101,5,"Bicks"